Why the Boston Celtics are going to win the 2023 NBA Championship - Trey Fritz Github site
…
## # A tibble: 6 × 25
##      Rk Team      G    MP    FG   FGA FGPct ThreeP ThreePA ThreePPct  `2P` `2PA`
##   <dbl> <chr> <dbl> <dbl> <dbl> <dbl> <dbl>  <dbl>   <dbl>     <dbl> <dbl> <dbl>
## 1     1 Bost…    79 19185  3014  6942 0.434    933    2752     0.339  2081  4190
## 2     2 Dall…    79 19035  3089  6747 0.458    866    2542     0.341  2223  4205
## 3     3 Miam…    79 19135  2946  6622 0.445   1021    3008     0.339  1925  3614
## 4     4 Clev…    79 19010  3107  6879 0.452    920    2624     0.351  2187  4255
## 5     5 Phil…    78 18845  3084  6750 0.457    883    2562     0.345  2201  4188
## 6     6 Gold…    79 19010  3000  6836 0.439    967    2845     0.34   2033  3991
## # … with 13 more variables: 2PPct <dbl>, FT <dbl>, FTA <dbl>, FTPct <dbl>,
## #   ORB <dbl>, DRB <dbl>, TRB <dbl>, AST <dbl>, STL <dbl>, BLK <dbl>,
## #   TOV <dbl>, PF <dbl>, PTS <dbl>

## # A tibble: 31 × 2
##    Team                    PTS
##    <chr>                 <dbl>
##  1 Boston Celtics         8236
##  2 Dallas Mavericks       8276
##  3 Miami Heat             8308
##  4 Cleveland Cavaliers    8312
##  5 Philadelphia 76ers     8334
##  6 Golden State Warriors  8335
##  7 Toronto Raptors        8340
##  8 Phoenix Suns           8357
##  9 Utah Jazz              8414
## 10 New York Knicks        8445
## # … with 21 more rows
…
